@startuml
skinparam DefaultFontSize 24
skinparam DefaultTextAlignment center

title <&caret-right> Using icons in PlantUML <&caret-left>

package "Charts <&menu>" as charts {

    file bar [
        Bar

        <size:120><&bar-chart></size>
    ]

    file pie [
        Pie

        <size:42><&pie-chart></size>
    ]

}
@enduml